[
{
  "directory": "/home/martin/univ/21W/cpp/cpp03/build",
  "command": "/usr/bin/c++  -std=c++20  -o CMakeFiles/kiv-cpp-02.dir/main.cpp.o -c /home/martin/univ/21W/cpp/cpp03/main.cpp",
  "file": "/home/martin/univ/21W/cpp/cpp03/main.cpp"
},
{
  "directory": "/home/martin/univ/21W/cpp/cpp03/build",
  "command": "/usr/bin/c++  -std=c++20  -o CMakeFiles/kiv-cpp-02.dir/analyzer.cpp.o -c /home/martin/univ/21W/cpp/cpp03/analyzer.cpp",
  "file": "/home/martin/univ/21W/cpp/cpp03/analyzer.cpp"
}
]
